module delivery/user_service

go 1.21.2

require (
	github.com/google/uuid v1.4.0
	github.com/jackc/pgx v3.6.2+incompatible
	github.com/jackc/pgx/v5 v5.5.0
	github.com/joho/godotenv v1.5.1
	github.com/spf13/cast v1.5.1
	github.com/streamingfast/logging v0.0.0-20230608130331-f22c91403091
	go.uber.org/zap v1.26.0
	golang.org/x/term v0.14.0
	google.golang.org/grpc v1.59.0
	google.golang.org/protobuf v1.31.0
)

require (
	github.com/blendle/zapdriver v1.3.1 // indirect
	github.com/cockroachdb/apd v1.1.0 // indirect
	github.com/gofrs/uuid v4.4.0+incompatible // indirect
	github.com/golang/protobuf v1.5.3 // indirect
	github.com/jackc/fake v0.0.0-20150926172116-812a484cc733 // indirect
	github.com/jackc/pgpassfile v1.0.0 // indirect
	github.com/jackc/pgservicefile v0.0.0-20221227161230-091c0ba34f0a // indirect
	github.com/jackc/puddle/v2 v2.2.1 // indirect
	github.com/lib/pq v1.10.9 // indirect
	github.com/logrusorgru/aurora v2.0.3+incompatible // indirect
	github.com/mitchellh/go-testing-interface v1.14.1 // indirect
	github.com/pkg/errors v0.8.1 // indirect
	github.com/shopspring/decimal v1.3.1 // indirect
	go.uber.org/multierr v1.10.0 // indirect
	golang.org/x/crypto v0.12.0 // indirect
	golang.org/x/net v0.14.0 // indirect
	golang.org/x/sync v0.3.0 // indirect
	golang.org/x/sys v0.14.0 // indirect
	golang.org/x/text v0.12.0 // indirect
	google.golang.org/genproto/googleapis/rpc v0.0.0-20230822172742-b8732ec3820d // indirect
)
